{
  "status": "success",
  "message": "Data transaksi berhasil diambil",
  "data": [
    {
      "id": 1,
      "akun_id": 1,
      "penginput_id": 1,
      "penanggung_jawab_id": 1,
      "deskripsi": "Pemasukan Dana Kas Pemuda",
      "date": "2026-06-14",
      "jenis_transaksi": "pemasukan",
      "jumlah": 1000000,
      "bukti": null,
      "bukti_public_id": null,
      "akun": {
        "id": 1,
        "nama_akun": "Kas Pemuda",
        "kas": "kas pemuda",
        "jumlah": "0.00",
        "keterangan": null
      },
      "penginput": {
        "id": 1,
        "name": "Test User Biasa",
        "email": "test@example.com",
        "role": "biasa",
        "status": "Aktif",
        "profile_image": null,
        "has_password": true
      },
      "penanggung_jawab": {
        "id": 1,
        "nama": "Bendahara Pemuda",
        "valuasi_transaksi": 1000000
      }
    },
    {
      "id": 17,
      "akun_id": 2,
      "penginput_id": 1,
      "penanggung_jawab_id": 1,
      "deskripsi": "Pemasukan Dana Kas AN",
      "date": "2026-06-14",
      "jenis_transaksi": "pemasukan",
      "jumlah": 1000000,
      "bukti": null,
      "bukti_public_id": null,
      "akun": {
        "id": 2,
        "nama_akun": "Kas AN",
        "kas": "17 an",
        "jumlah": "0.00",
        "keterangan": null
      },
      "penginput": {
        "id": 1,
        "name": "Test User Biasa",
        "email": "test@example.com",
        "role": "biasa",
        "status": "Aktif",
        "profile_image": null,
        "has_password": true
      },
      "penanggung_jawab": {
        "id": 1,
        "nama": "Bendahara Pemuda",
        "valuasi_transaksi": 1000000
      }
    },
    {
      "id": 81,
      "akun_id": 1,
      "penginput_id": 2,
      "penanggung_jawab_id": 1,
      "deskripsi": "Transaksi pemasukan kas",
      "date": "2026-06-14",
      "jenis_transaksi": "pemasukan",
      "jumlah": 100000,
      "bukti": "https://res.cloudinary.com/dxeynvxfr/image/upload/v1781426849/bukti_transaksi/z2sgonla5jlsleoapmyd.jpg",
      "bukti_public_id": null,
      "akun": {
        "id": 1,
        "nama_akun": "Kas Pemuda",
        "kas": "kas pemuda",
        "jumlah": "0.00",
        "keterangan": null
      },
      "penginput": {
        "id": 2,
        "name": "Fauzan Trisuladana",
        "email": "fauzantrisuladana@gmail.com",
        "role": "bendahara",
        "status": "Aktif",
        "profile_image": "https://lh3.googleusercontent.com/a/ACg8ocJgjcrmN_OSQiAu_cwa0iqqeCT2DJCNExzdL7ztc3_I2er2KRM1=s96-c",
        "has_password": true
      },
      "penanggung_jawab": {
        "id": 1,
        "nama": "Bendahara Pemuda",
        "valuasi_transaksi": 1000000
      }
    },
    {
      "id": 59,
      "akun_id": 4,
      "penginput_id": 3,
      "penanggung_jawab_id": 2,
      "deskripsi": "Pemasukan Dana Dana BOS",
      "date": "2026-06-14",
      "jenis_transaksi": "pemasukan",
      "jumlah": 1000000,
      "bukti": null,
      "bukti_public_id": null,
      "akun": {
        "id": 4,
        "nama_akun": "Dana BOS",
        "kas": "kas pemuda",
        "jumlah": "0.00",
        "keterangan": null
      },
      "penginput": {
        "id": 3,
        "name": "User Pending",
        "email": "pending@example.com",
        "role": "biasa",
        "status": "Pending",
        "profile_image": null,
        "has_password": true
      },
      "penanggung_jawab": {
        "id": 2,
        "nama": "Ketua Pemuda",
        "valuasi_transaksi": 500000
      }
    },
    {
      "id": 43,
      "akun_id": 3,
      "penginput_id": 3,
      "penanggung_jawab_id": 2,
      "deskripsi": "Pemasukan Dana Bank BRI",
      "date": "2026-06-14",
      "jenis_transaksi": "pemasukan",
      "jumlah": 1000000,
      "bukti": null,
      "bukti_public_id": null,
      "akun": {
        "id": 3,
        "nama_akun": "Bank BRI",
        "kas": "kas pemuda",
        "jumlah": "0.00",
        "keterangan": null
      },
      "penginput": {
        "id": 3,
        "name": "User Pending",
        "email": "pending@example.com",
        "role": "biasa",
        "status": "Pending",
        "profile_image": null,
        "has_password": true
      },
      "penanggung_jawab": {
        "id": 2,
        "nama": "Ketua Pemuda",
        "valuasi_transaksi": 500000
      }
    },
    {
      "id": 75,
      "akun_id": 5,
      "penginput_id": 3,
      "penanggung_jawab_id": 2,
      "deskripsi": "Pemasukan Dana Bank BCA",
      "date": "2026-06-14",
      "jenis_transaksi": "pemasukan",
      "jumlah": 1000000,
      "bukti": null,
      "bukti_public_id": null,
      "akun": {
        "id": 5,
        "nama_akun": "Bank BCA",
        "kas": "kas pemuda",
        "jumlah": "0.00",
        "keterangan": null
      },
      "penginput": {
        "id": 3,
        "name": "User Pending",
        "email": "pending@example.com",
        "role": "biasa",
        "status": "Pending",
        "profile_image": null,
        "has_password": true
      },
      "penanggung_jawab": {
        "id": 2,
        "nama": "Ketua Pemuda",
        "valuasi_transaksi": 500000
      }
    },
    {
      "id": 7,
      "akun_id": 1,
      "penginput_id": 2,
      "penanggung_jawab_id": 2,
      "deskripsi": "Pemasukan Dana Kas Pemuda",
      "date": "2026-06-14",
      "jenis_transaksi": "pemasukan",
      "jumlah": 1000000,
      "bukti": null,
      "bukti_public_id": null,
      "akun": {
        "id": 1,
        "nama_akun": "Kas Pemuda",
        "kas": "kas pemuda",
        "jumlah": "0.00",
        "keterangan": null
      },
      "penginput": {
        "id": 2,
        "name": "Fauzan Trisuladana",
        "email": "fauzantrisuladana@gmail.com",
        "role": "bendahara",
        "status": "Aktif",
        "profile_image": "https://lh3.googleusercontent.com/a/ACg8ocJgjcrmN_OSQiAu_cwa0iqqeCT2DJCNExzdL7ztc3_I2er2KRM1=s96-c",
        "has_password": true
      },
      "penanggung_jawab": {
        "id": 2,
        "nama": "Ketua Pemuda",
        "valuasi_transaksi": 500000
      }
    },
    {
      "id": 23,
      "akun_id": 2,
      "penginput_id": 2,
      "penanggung_jawab_id": 2,
      "deskripsi": "Pemasukan Dana Kas AN",
      "date": "2026-06-14",
      "jenis_transaksi": "pemasukan",
      "jumlah": 1000000,
      "bukti": null,
      "bukti_public_id": null,
      "akun": {
        "id": 2,
        "nama_akun": "Kas AN",
        "kas": "17 an",
        "jumlah": "0.00",
        "keterangan": null
      },
      "penginput": {
        "id": 2,
        "name": "Fauzan Trisuladana",
        "email": "fauzantrisuladana@gmail.com",
        "role": "bendahara",
        "status": "Aktif",
        "profile_image": "https://lh3.googleusercontent.com/a/ACg8ocJgjcrmN_OSQiAu_cwa0iqqeCT2DJCNExzdL7ztc3_I2er2KRM1=s96-c",
        "has_password": true
      },
      "penanggung_jawab": {
        "id": 2,
        "nama": "Ketua Pemuda",
        "valuasi_transaksi": 500000
      }
    },
    {
      "id": 65,
      "akun_id": 5,
      "penginput_id": 1,
      "penanggung_jawab_id": 1,
      "deskripsi": "Pemasukan Dana Bank BCA",
      "date": "2026-06-14",
      "jenis_transaksi": "pemasukan",
      "jumlah": 1000000,
      "bukti": null,
      "bukti_public_id": null,
      "akun": {
        "id": 5,
        "nama_akun": "Bank BCA",
        "kas": "kas pemuda",
        "jumlah": "0.00",
        "keterangan": null
      },
      "penginput": {
        "id": 1,
        "name": "Test User Biasa",
        "email": "test@example.com",
        "role": "biasa",
        "status": "Aktif",
        "profile_image": null,
        "has_password": true
      },
      "penanggung_jawab": {
        "id": 1,
        "nama": "Bendahara Pemuda",
        "valuasi_transaksi": 1000000
      }
    },
    {
      "id": 49,
      "akun_id": 4,
      "penginput_id": 1,
      "penanggung_jawab_id": 1,
      "deskripsi": "Pemasukan Dana Dana BOS",
      "date": "2026-06-14",
      "jenis_transaksi": "pemasukan",
      "jumlah": 1000000,
      "bukti": null,
      "bukti_public_id": null,
      "akun": {
        "id": 4,
        "nama_akun": "Dana BOS",
        "kas": "kas pemuda",
        "jumlah": "0.00",
        "keterangan": null
      },
      "penginput": {
        "id": 1,
        "name": "Test User Biasa",
        "email": "test@example.com",
        "role": "biasa",
        "status": "Aktif",
        "profile_image": null,
        "has_password": true
      },
      "penanggung_jawab": {
        "id": 1,
        "nama": "Bendahara Pemuda",
        "valuasi_transaksi": 1000000
      }
    }
  ],
  "meta": {
    "current_page": 1,
    "last_page": 9,
    "per_page": 10,
    "total": 81
  },
  "summary": {
    "total_pemasukan": 9100000,
    "total_pengeluaran": 0
  }
}
